<?xml version="1.0" encoding="UTF-8" standalone="no"?>
<!-- Created with Inkscape (http://www.inkscape.org/) -->

<svg
   xmlns:dc="http://purl.org/dc/elements/1.1/"
   xmlns:cc="http://creativecommons.org/ns#"
   xmlns:rdf="http://www.w3.org/1999/02/22-rdf-syntax-ns#"
   xmlns:svg="http://www.w3.org/2000/svg"
   xmlns="http://www.w3.org/2000/svg"
   xmlns:sodipodi="http://sodipodi.sourceforge.net/DTD/sodipodi-0.dtd"
   xmlns:inkscape="http://www.inkscape.org/namespaces/inkscape"
   width="210mm"
   height="297mm"
   viewBox="0 0 744.09448819 1052.3622047"
   id="svg2"
   version="1.1"
   inkscape:version="0.91 r13725"
   sodipodi:docname="fillet_path.svg">
  <defs
     id="defs4" />
  <sodipodi:namedview
     id="base"
     pagecolor="#ffffff"
     bordercolor="#666666"
     borderopacity="1.0"
     inkscape:pageopacity="0.0"
     inkscape:pageshadow="2"
     inkscape:zoom="1.979899"
     inkscape:cx="382.74955"
     inkscape:cy="876.96445"
     inkscape:document-units="px"
     inkscape:current-layer="layer1"
     showgrid="true"
     inkscape:snap-grids="true"
     inkscape:snap-others="true"
     inkscape:snap-nodes="true"
     inkscape:snap-global="true"
     inkscape:snap-bbox="true"
     inkscape:window-width="1280"
     inkscape:window-height="975"
     inkscape:window-x="0"
     inkscape:window-y="0"
     inkscape:window-maximized="1">
    <inkscape:grid
       type="xygrid"
       id="grid4156" />
  </sodipodi:namedview>
  <metadata
     id="metadata7">
    <rdf:RDF>
      <cc:Work
         rdf:about="">
        <dc:format>image/svg+xml</dc:format>
        <dc:type
           rdf:resource="http://purl.org/dc/dcmitype/StillImage" />
        <dc:title />
      </cc:Work>
    </rdf:RDF>
  </metadata>
  <g
     inkscape:label="Layer 1"
     inkscape:groupmode="layer"
     id="layer1">
    <path
       style="fill:none;fill-rule:evenodd;stroke:#000000;stroke-width:1px;stroke-linecap:butt;stroke-linejoin:miter;stroke-opacity:1"
       d="M 338.30212,224.38694 398.59887,164.90563 353.70142,82.848006"
       id="path4158-3"
       inkscape:connector-curvature="0" />
    <path
       style="fill:none;fill-rule:evenodd;stroke:#000000;stroke-width:1px;stroke-linecap:butt;stroke-linejoin:miter;stroke-opacity:1"
       d="m 371.98214,191.31826 c 0.23447,-0.55683 0.4023,-1.14669 0.7034,-1.67051 0.1876,-0.32638 0.48035,-0.58105 0.74481,-0.84898 0.63691,-0.64524 1.39817,-1.17492 1.95736,-1.88857 0.2937,-0.37483 0.30924,-0.90834 0.55418,-1.31669 0.19365,-0.32285 0.51898,-0.54778 0.74483,-0.84898 1.05301,-0.37594 0.82662,-1.46892 1.299,-2.16568 0.21126,-0.31159 0.53356,-0.53737 0.74481,-0.84897 0.50124,-0.73933 0.60714,-1.89406 1.10839,-2.63339 0.21125,-0.3116 0.53356,-0.53738 0.74481,-0.84898 0.40083,-0.59122 0.46387,-1.36249 0.83129,-1.97505 0.19364,-0.32283 0.53356,-0.53737 0.74481,-0.84896 0.14167,-0.20896 1.09293,-2.43203 1.10839,-2.6334 0.0129,-0.16787 -0.25595,-0.31255 -0.19063,-0.46772 0.14604,-0.34698 0.59877,-0.502 0.74481,-0.84898 0.14605,-0.34698 0.0113,-0.75719 0.0865,-1.12607 0.0475,-0.2333 0.25886,-0.42095 0.27709,-0.65835 0.0129,-0.16786 -0.25595,-0.31254 -0.19063,-0.46771 0.0653,-0.15518 0.40241,-0.0355 0.46773,-0.19063 0.0653,-0.15518 -0.17962,-0.29974 -0.19063,-0.46772 -0.0246,-0.37566 0.0576,-0.75072 0.0865,-1.12607 0.0576,-0.75072 0.22204,-1.50082 0.17294,-2.25215 -0.011,-0.16798 -0.25594,-0.31254 -0.19062,-0.46771 0.0653,-0.15518 0.40241,-0.0355 0.46772,-0.19063 0.0111,-0.0265 -0.69251,-1.69913 -0.76251,-1.87089 -0.44705,-1.09688 -0.0204,0.26542 0.0865,-1.12607 0.0346,-0.45042 -0.60647,-0.95274 -0.57188,-1.40316 0.0182,-0.2374 0.25887,-0.42096 0.2771,-0.65836 0.0258,-0.33572 -0.40704,-0.5997 -0.38126,-0.93544 0.0182,-0.23739 0.25886,-0.42095 0.27709,-0.65835 0.0129,-0.16786 -0.17961,-0.29973 -0.19062,-0.46771 -0.0246,-0.37567 0.11102,-0.75041 0.0865,-1.12608 -0.011,-0.16798 -0.20353,-0.29985 -0.19063,-0.46772 0.0182,-0.23739 0.25887,-0.42095 0.2771,-0.65835 0.0258,-0.33573 -0.40704,-0.59971 -0.38125,-0.93544 0.0182,-0.23739 0.25886,-0.42095 0.27709,-0.65835 0.0129,-0.16786 -0.20353,-0.29985 -0.19063,-0.46772 0.0182,-0.23739 0.25887,-0.42095 0.2771,-0.65835 0.0171,-0.22324 -0.62853,-1.26857 -0.57188,-1.40316 0.0653,-0.15518 0.45483,-0.0228 0.46771,-0.19063 0.0258,-0.33573 -0.40702,-0.59971 -0.38125,-0.93544 0.0129,-0.16787 0.45484,-0.0228 0.46773,-0.19063 0.0258,-0.33573 -0.3593,-0.59944 -0.38126,-0.93544 -0.0155,-0.23759 0.25887,-0.42095 0.2771,-0.65835 0.0129,-0.16786 -0.20352,-0.29985 -0.19063,-0.46773 0.0182,-0.23739 0.25887,-0.42094 0.2771,-0.65834 0.0234,-0.30544 -0.83833,-1.69075 -0.76251,-1.87089 0.0653,-0.15517 0.40241,-0.0354 0.46772,-0.19063 0.0653,-0.15516 -0.12708,-0.3118 -0.19062,-0.46771 l -0.19063,-0.46773 c -0.19197,-0.47102 -1.12455,-2.51253 -1.14376,-2.80633 -0.0155,-0.23758 0.3108,-0.42265 0.2771,-0.65834 -0.0715,-0.49999 -0.38126,-0.93545 -0.57188,-1.40317 l -1.90626,-4.67721 c -0.10985,-0.26951 -0.96886,-2.13342 -0.95314,-2.33862 0.0182,-0.23739 0.25886,-0.42094 0.27709,-0.65834 0.0129,-0.16787 -0.12708,-0.31182 -0.19063,-0.46772 l -0.19063,-0.46773 -0.95313,-2.33861 -0.57188,-1.40316 -0.19062,-0.46772 0.38125,0.93544 c -0.19063,-0.46772 -0.2735,-0.99564 -0.57188,-1.40316 -0.14061,-0.19212 -0.47937,-0.12008 -0.65834,-0.27709 -0.16831,-0.14766 -0.4373,-1.34653 -0.57188,-1.40317 -0.15518,-0.0653 -0.31255,0.25593 -0.46773,0.19063 -0.15517,-0.0653 -0.12708,-0.31182 -0.19062,-0.46773 -0.0636,-0.15591 -0.34654,-0.40418 -0.19063,-0.46772 0.15591,-0.0636 0.25417,0.62363 0.19063,0.46772 l -1.14376,-2.80633 -0.38126,-0.93544 c -0.0635,-0.15591 -0.34653,-0.40418 -0.19062,-0.46773 0.1559,-0.0635 0.25417,0.62364 0.19062,0.46773 l -0.38125,-0.93544 c -0.0635,-0.15591 -0.34653,-0.40418 -0.19063,-0.46773 0.15591,-0.0635 0.12709,0.31182 0.19063,0.46773"
       id="path4164-6"
       inkscape:connector-curvature="0"
       sodipodi:nodetypes="cccsscccsccsccsccccccccssssccccccccccsscccccssccssccssccscccccccscssscsssssc" />
    <path
       style="fill:none;fill-rule:evenodd;stroke:#000000;stroke-width:1px;stroke-linecap:butt;stroke-linejoin:miter;stroke-opacity:1"
       d="m 372.69332,118.74072 -43.40966,31.32759 40.78617,41.19092"
       id="path4166-7"
       inkscape:connector-curvature="0" />
    <path
       style="fill:none;fill-rule:evenodd;stroke:#000000;stroke-width:1px;stroke-linecap:butt;stroke-linejoin:miter;stroke-opacity:1"
       d="m 373.35168,119.01782 14.10042,-9.56473"
       id="path4168-5"
       inkscape:connector-curvature="0" />
    <path
       style="fill:none;fill-rule:evenodd;stroke:#000000;stroke-width:1px;stroke-linecap:butt;stroke-linejoin:miter;stroke-opacity:1"
       d="m 371.1959,191.3457 12.37106,12.95667"
       id="path4170-3"
       inkscape:connector-curvature="0" />
    <path
       style="fill:none;fill-rule:evenodd;stroke:#000000;stroke-width:1px;stroke-linecap:butt;stroke-linejoin:miter;stroke-opacity:1"
       d="m 359.31025,180.91826 c -0.0269,1.50562 -0.31895,2.99868 -0.34587,4.50428 -0.01,0.53231 0.14492,1.06296 0.10415,1.59379 -0.0465,0.60525 -0.40314,1.17869 -0.36356,1.78442 0.0329,0.50401 0.50039,0.90317 0.57188,1.40317 0.0337,0.23568 -0.25887,0.42095 -0.27709,0.65835 -0.0236,0.30792 0.52169,1.05244 0.57188,1.40317 0.0754,0.52703 0.10069,1.0614 0.10416,1.59378 0.002,0.37646 -0.15743,0.75636 -0.0865,1.12608 0.0951,0.49604 0.47663,0.90716 0.57188,1.40316 0.071,0.3697 -0.13976,0.7534 -0.0865,1.12607 0.0476,0.33334 0.25417,0.62363 0.38126,0.93544 0.25417,0.62364 0.50833,1.24726 0.76251,1.87089 0.10639,0.26106 0.79447,2.1536 0.95313,2.33861 0.20215,0.23581 2.18032,0.80121 2.63339,1.10837 0.3116,0.21126 0.52614,0.55118 0.84898,0.74483 0.40836,0.24494 0.8778,0.36945 1.3167,0.55419 0.21945,0.0924 0.42504,0.22955 0.65834,0.27709 0.36889,0.0752 0.75719,0.0113 1.12608,0.0865 0.23329,0.0475 0.42504,0.22956 0.65834,0.2771 0.36889,0.0751 0.75719,0.0113 1.12607,0.0865 0.2333,0.0475 0.4389,0.18473 0.65835,0.2771 0.46085,0.19396 1.5142,0.63731 1.97504,0.83128 0.43891,0.18473 0.8501,0.45913 1.3167,0.55419 0.36888,0.0751 0.75041,0.11102 1.12608,0.0865 0.33599,-0.022 0.62508,-0.51188 0.93544,-0.38125 0.15517,0.0653 0.0354,0.40241 0.19062,0.46771 0.15518,0.0653 0.31255,-0.25593 0.46773,-0.19062 0.15516,0.0653 0.0354,0.40241 0.19062,0.46772 0.15517,0.0653 0.29986,-0.20352 0.46772,-0.19062 0.2374,0.0182 0.42096,0.25887 0.65835,0.27709 0.16787,0.0129 0.40418,-0.34653 0.46772,-0.19062 0.0635,0.1559 -0.62363,0.25417 -0.46772,0.19062 1.09135,-0.44479 2.1827,-0.88959 3.27405,-1.33438 0.21065,-0.0858 1.28985,-0.44265 1.40317,-0.57188 0.31404,-0.35796 0.24015,-0.95875 0.55418,-1.3167 0.22207,-0.25311 0.80483,-0.0709 0.93545,-0.38126 0.0653,-0.15516 -0.12708,-0.31181 -0.19062,-0.46771 -0.25417,-0.62364 -0.50834,-1.24726 -0.76251,-1.8709 -0.44705,-1.09688 -0.0204,0.26543 0.0865,-1.12606 0.0129,-0.16787 -0.12708,-0.31182 -0.19063,-0.46773 -0.0635,-0.1559 -0.12708,-0.3118 -0.19062,-0.46771 -0.22517,-0.55248 -1.12311,-2.49041 -1.14376,-2.80633 -0.0155,-0.2376 0.29263,-0.42077 0.2771,-0.65836 -0.0329,-0.50399 -0.38125,-0.93544 -0.57188,-1.40316 -0.31771,-0.77954 -0.63542,-1.55907 -0.95314,-2.33861 -0.63542,-1.55907 -1.27084,-3.11814 -1.90626,-4.67721 -0.19063,-0.46773 -0.38125,-0.93544 -0.57188,-1.40317 -0.12709,-0.31182 -0.2046,-0.64878 -0.38125,-0.93544 -0.36411,-0.59101 -0.84726,-1.10131 -1.23024,-1.68026 -0.115,-0.17381 -0.31776,-0.90871 -0.38125,-0.93545 -0.15518,-0.0653 -0.31255,0.25595 -0.46771,0.19063 -0.15518,-0.0653 -0.0641,-0.35669 -0.19063,-0.46773 -1.94271,-1.70436 1.00276,1.90573 -1.50733,-1.0219 -0.10955,-0.12783 -0.0641,-0.3567 -0.19063,-0.46772 -0.0812,-0.0713 -2.52561,-1.1001 -2.63339,-1.10839 -0.16787,-0.0129 -0.29985,0.20352 -0.46772,0.19063 -0.86233,-0.0662 -0.70547,-0.68441 -1.50732,-1.02191 -0.15518,-0.0653 -0.29985,0.20353 -0.46772,0.19063 -2.57679,-0.19787 2.06374,-0.61505 -1.78443,-0.36357 -0.33344,0.0218 -1.49435,0.60905 -1.87088,0.76251 -0.11344,0.0462 -1.38201,0.58075 -1.40316,0.57188 -0.15518,-0.0653 -0.0355,-0.40241 -0.19063,-0.46772 -0.0265,-0.0111 -1.69912,0.6925 -1.87088,0.76251 -0.15591,0.0635 -0.62363,0.25417 -0.46773,0.19062 0.31182,-0.12708 1.27117,-0.35547 0.93545,-0.38125 -1.06167,-0.0815 -2.12506,0.13887 -3.18759,0.20831 z"
       id="path4172-5"
       inkscape:connector-curvature="0" />
    <path
       style="fill:none;fill-rule:evenodd;stroke:#000000;stroke-width:1px;stroke-linecap:butt;stroke-linejoin:miter;stroke-opacity:1"
       d="m 359.14708,126.98876 c 2.03747,1.15855 3.94747,1.66236 6.20224,1.8355 0.37535,0.0288 0.75041,0.11102 1.12606,0.0865 0.69269,-0.0453 1.36884,-0.24952 2.06151,-0.29478 0.37567,-0.0246 0.74962,0.0889 1.12608,0.0865 1.06477,-0.007 2.12281,-0.20138 3.18758,-0.20832 0.75291,-0.005 1.50081,0.22205 2.25214,0.17295 0.16799,-0.011 0.29974,-0.17961 0.46773,-0.19063 0.37565,-0.0246 0.75041,0.11102 1.12606,0.0865 0.336,-0.022 0.62363,-0.25417 0.93544,-0.38126 0.77954,-0.31771 1.55908,-0.63542 2.33861,-0.95313 0.19676,-0.0802 2.69554,-1.01751 2.80633,-1.14376 0.15702,-0.17898 0.0963,-0.50337 0.2771,-0.65834 0.25563,-0.21917 0.67982,-0.16209 0.93544,-0.38126 0.18076,-0.15498 0.12008,-0.47937 0.2771,-0.65835 0.91722,-1.04549 0.13111,1.52976 1.21253,-1.0396 0.14605,-0.34697 -0.0596,-0.77909 0.0865,-1.12607 0.14604,-0.34698 0.53357,-0.53737 0.74482,-0.84897 0.26722,-0.39415 0.24015,-0.95874 0.55419,-1.3167 0.11103,-0.12657 0.40241,-0.0354 0.46772,-0.19063 0.0653,-0.15517 -0.20352,-0.29985 -0.19063,-0.46771 0.0182,-0.2374 0.25887,-0.42096 0.2771,-0.65836 0.0235,-0.30544 -0.83832,-1.69074 -0.7625,-1.87088 0.0653,-0.15518 0.40241,-0.0355 0.46771,-0.19062 0.0653,-0.15518 -0.25593,-0.31255 -0.19063,-0.46773 0.0653,-0.15517 0.40419,-0.34653 0.46773,-0.19063 0.0635,0.15591 -0.62362,0.25417 -0.46773,0.19063 0.31182,-0.12708 0.71339,-0.12814 0.93546,-0.38125 0.11102,-0.12657 -0.20353,-0.29986 -0.19063,-0.46773 0.0182,-0.2374 0.22955,-0.42504 0.27709,-0.65834 0.0752,-0.36889 0.0113,-0.75719 0.0865,-1.12608 0.0475,-0.23329 0.22956,-0.42503 0.2771,-0.65834 0.20887,-1.02521 0.17956,-0.89763 -0.10417,-1.59379 -0.0635,-0.15591 -0.25417,-0.62363 -0.19062,-0.46773 0.12708,0.31182 0.50833,1.24726 0.38125,0.93545 -0.19063,-0.46772 -0.38125,-0.93545 -0.57188,-1.40316 -0.0997,-0.24459 -0.65089,-1.77297 -0.76251,-1.87089 -0.17898,-0.15703 -0.47936,-0.12008 -0.65834,-0.27709 -0.37967,-0.3331 -0.19221,-1.07008 -0.57188,-1.40317 -0.12656,-0.11103 -0.31255,0.25593 -0.46772,0.19063 -0.15518,-0.0653 -0.0641,-0.3567 -0.19063,-0.46773 -0.17898,-0.15702 -0.4389,-0.18473 -0.65835,-0.2771 -0.21945,-0.0924 -0.42095,-0.25886 -0.65834,-0.27709 -0.16788,-0.0129 -0.29986,0.20353 -0.46773,0.19063 -0.86233,-0.0662 -0.70547,-0.68442 -1.50732,-1.02191 -0.34698,-0.14605 -0.7791,0.0596 -1.12607,-0.0865 -0.55949,-0.23548 -0.94783,-0.78642 -1.50733,-1.02191 -0.15516,-0.0653 -0.29973,0.17961 -0.46771,0.19063 -0.75133,0.0491 -1.50681,-0.27951 -2.25215,-0.17293 -0.33333,0.0476 -0.6021,0.33362 -0.93544,0.38125 -0.74534,0.10658 -1.50679,-0.27952 -2.25214,-0.17293 -0.33334,0.0476 -0.6021,0.33361 -0.93544,0.38125 -0.37267,0.0533 -0.75493,-0.14955 -1.12607,-0.0865 -2.31963,0.39423 -4.16872,1.15362 -6.27101,2.01043 -0.24458,0.0997 -1.77296,0.6509 -1.87089,0.76251 -0.15702,0.17898 -0.12007,0.47936 -0.27709,0.65834 -0.35111,0.40022 -0.93868,0.58304 -1.21254,1.03961 -0.38729,0.64567 0.11915,1.55818 -0.17294,2.25214 -0.14604,0.34697 -0.59877,0.50199 -0.74482,0.84897 -0.0653,0.15518 0.25595,0.31255 0.19063,0.46773 -0.0653,0.15517 -0.40241,0.0354 -0.46771,0.19062 -0.13063,0.31035 0.51187,0.62509 0.38125,0.93544 -0.0653,0.15518 -0.40241,0.0354 -0.46773,0.19063 -0.0653,0.15518 0.20353,0.29985 0.19063,0.46773 -0.10984,1.4304 -0.75424,-0.25117 -0.36356,1.78441 0.0952,0.49604 0.47663,0.90716 0.57188,1.40316 0.14191,0.73943 -0.22204,1.50082 -0.17294,2.25215 0.011,0.16798 0.25594,0.31255 0.19062,0.46771 -0.0653,0.15518 -0.4024,0.0355 -0.46772,0.19063 -0.13062,0.31035 0.51188,0.6251 0.38126,0.93545 -0.0653,0.15517 -0.40241,0.0354 -0.46773,0.19063 -0.0653,0.15517 0.17961,0.29973 0.19063,0.46771 0.0246,0.37567 -0.11102,0.75041 -0.0865,1.12608 0.022,0.33599 0.51187,0.62509 0.38125,0.93544 -0.0475,0.11288 -1.38055,0.48567 -1.40316,0.57188 -0.19102,0.72829 -0.1153,1.50143 -0.17295,2.25214 z"
       id="path4174-6"
       inkscape:connector-curvature="0" />
    <text
       xml:space="preserve"
       style="font-style:normal;font-weight:normal;font-size:12.5px;line-height:125%;font-family:sans-serif;letter-spacing:0px;word-spacing:0px;fill:#000000;fill-opacity:1;stroke:none;stroke-width:1px;stroke-linecap:butt;stroke-linejoin:miter;stroke-opacity:1"
       x="341.43155"
       y="176.55995"
       id="text4209"
       sodipodi:linespacing="125%"><tspan
         sodipodi:role="line"
         id="tspan4211"
         x="341.43155"
         y="176.55995">r</tspan><tspan
         sodipodi:role="line"
         x="341.43155"
         y="192.18495"
         id="tspan4213" /></text>
    <text
       xml:space="preserve"
       style="font-style:normal;font-weight:normal;font-size:12.5px;line-height:125%;font-family:sans-serif;letter-spacing:0px;word-spacing:0px;fill:#000000;fill-opacity:1;stroke:none;stroke-width:1px;stroke-linecap:butt;stroke-linejoin:miter;stroke-opacity:1"
       x="342.84006"
       y="136.11868"
       id="text4209-2"
       sodipodi:linespacing="125%"><tspan
         sodipodi:role="line"
         id="tspan4211-9"
         x="342.84006"
         y="136.11868">r</tspan><tspan
         sodipodi:role="line"
         x="342.84006"
         y="151.74368"
         id="tspan4213-1" /></text>
    <path
       style="fill:none;stroke:#000000;stroke-width:0.57200003;stroke-miterlimit:4;stroke-dasharray:0.57200003,0.57200003;stroke-opacity:1;stroke-dashoffset:0"
       id="path4258"
       sodipodi:type="arc"
       sodipodi:cx="398.78833"
       sodipodi:cy="164.86923"
       sodipodi:rx="16.920055"
       sodipodi:ry="17.425131"
       sodipodi:start="2.3862951"
       sodipodi:end="4.1782194"
       d="m 386.46939,176.81425 a 16.920055,17.425131 0 0 1 -4.434,-14.38804 16.920055,17.425131 0 0 1 8.13849,-12.55464 l 8.61445,14.99766 z" />
    <text
       xml:space="preserve"
       style="font-style:normal;font-weight:normal;font-size:12.5px;line-height:125%;font-family:sans-serif;letter-spacing:0px;word-spacing:0px;fill:#000000;fill-opacity:1;stroke:none;stroke-width:1px;stroke-linecap:butt;stroke-linejoin:miter;stroke-opacity:1"
       x="373.38535"
       y="169.94408"
       id="text4260"
       sodipodi:linespacing="125%"><tspan
         sodipodi:role="line"
         x="373.38535"
         y="169.94408"
         id="tspan4264">α</tspan></text>
    <path
       style="fill:none;fill-rule:evenodd;stroke:#000000;stroke-width:1;stroke-linecap:butt;stroke-linejoin:miter;stroke-opacity:1;stroke-miterlimit:4;stroke-dasharray:1,1;stroke-dashoffset:0"
       d="m 329.81481,150.80106 68.18529,14.14213"
       id="path4268"
       inkscape:connector-curvature="0" />
    <text
       xml:space="preserve"
       style="font-style:normal;font-weight:normal;font-size:12.5px;line-height:125%;font-family:sans-serif;letter-spacing:0px;word-spacing:0px;fill:#000000;fill-opacity:1;stroke:none;stroke-width:1px;stroke-linecap:butt;stroke-linejoin:miter;stroke-opacity:1"
       x="389.91888"
       y="143.22491"
       id="text4270"
       sodipodi:linespacing="125%"><tspan
         sodipodi:role="line"
         x="389.91888"
         y="143.22491"
         id="tspan4274">d</tspan></text>
    <text
       xml:space="preserve"
       style="font-style:normal;font-weight:normal;font-size:12.5px;line-height:125%;font-family:sans-serif;letter-spacing:0px;word-spacing:0px;fill:#000000;fill-opacity:1;stroke:none;stroke-width:1px;stroke-linecap:butt;stroke-linejoin:miter;stroke-opacity:1"
       x="392.23529"
       y="179.19968"
       id="text4270-6"
       sodipodi:linespacing="125%"><tspan
         sodipodi:role="line"
         x="392.23529"
         y="179.19968"
         id="tspan4274-2">d</tspan></text>
    <path
       style="fill:none;fill-rule:evenodd;stroke:#000000;stroke-width:1px;stroke-linecap:butt;stroke-linejoin:miter;stroke-opacity:1"
       d="m 353.42402,209.29025 -60.00878,59.77182 45.29322,81.83982"
       id="path4158-3-6"
       inkscape:connector-curvature="0" />
    <path
       style="fill:none;fill-rule:evenodd;stroke:#000000;stroke-width:1px;stroke-linecap:butt;stroke-linejoin:miter;stroke-opacity:1"
       d="m 319.90409,242.52119 c -0.23178,0.55797 -0.39675,1.14863 -0.69532,1.67389 -0.18601,0.32728 -0.47754,0.58337 -0.7407,0.85258 -0.63378,0.6483 -1.39248,1.18165 -1.94821,1.89799 -0.29189,0.37626 -0.30486,0.90983 -0.54782,1.31936 -0.19208,0.32378 -0.51633,0.55028 -0.74072,0.85256 -1.05118,0.38103 -0.81952,1.4729 -1.28852,2.17193 -0.20976,0.31262 -0.53097,0.53994 -0.74071,0.85256 -0.49767,0.74174 -0.59798,1.89697 -1.09567,2.63871 -0.20973,0.31261 -0.53094,0.53995 -0.74069,0.85257 -0.39797,0.59315 -0.45728,1.36471 -0.82174,1.97903 -0.19207,0.32377 -0.53096,0.53995 -0.7407,0.85255 -0.14065,0.20965 -1.08117,2.4373 -1.09567,2.63873 -0.0121,0.16792 0.25746,0.3113 0.1929,0.46679 -0.14436,0.34769 -0.59634,0.50489 -0.74071,0.85257 -0.14437,0.34769 -0.007,0.75724 -0.081,1.12647 -0.0464,0.23353 -0.25682,0.4222 -0.2739,0.65968 -0.0121,0.16793 0.25745,0.3113 0.19289,0.4668 -0.0646,0.15548 -0.40222,0.0377 -0.46681,0.19288 -0.0645,0.15548 0.18107,0.29887 0.19289,0.46679 0.0267,0.37551 -0.0539,0.75099 -0.081,1.12648 -0.054,0.75098 -0.21479,1.50187 -0.16206,2.25295 0.0118,0.16794 0.25744,0.3113 0.19287,0.46679 -0.0645,0.15548 -0.40222,0.0377 -0.46679,0.19288 -0.011,0.0266 0.7007,1.69577 0.77153,1.86719 0.45235,1.09472 0.0191,-0.26551 -0.081,1.12648 -0.0325,0.45058 0.61108,0.94979 0.57865,1.40037 -0.0171,0.23749 -0.25683,0.42222 -0.27391,0.6597 -0.0242,0.33583 0.40992,0.59773 0.38578,0.93358 -0.0171,0.23747 -0.25683,0.42221 -0.27391,0.65969 -0.0121,0.16791 0.18105,0.29886 0.19287,0.46678 0.0267,0.37552 -0.1074,0.75094 -0.081,1.12649 0.0118,0.16792 0.20498,0.29885 0.1929,0.46679 -0.0171,0.23747 -0.25684,0.4222 -0.27392,0.65968 -0.0242,0.33586 0.40992,0.59773 0.38576,0.93358 -0.0171,0.23748 -0.25682,0.4222 -0.2739,0.65968 -0.0121,0.16792 0.20497,0.29887 0.19288,0.4668 -0.0171,0.23747 -0.25684,0.4222 -0.27392,0.65969 -0.0159,0.22331 0.63465,1.26551 0.57865,1.40037 -0.0645,0.15549 -0.45474,0.0246 -0.46678,0.19289 -0.0242,0.33585 0.40991,0.59773 0.38576,0.93358 -0.0121,0.16793 -0.45475,0.0246 -0.4668,0.19289 -0.0243,0.33586 0.36219,0.5977 0.38578,0.9336 0.0166,0.2375 -0.25684,0.42218 -0.27392,0.65967 -0.0121,0.16792 0.20496,0.29886 0.19288,0.4668 -0.0171,0.23748 -0.25683,0.42219 -0.27391,0.65968 -0.022,0.30554 0.84648,1.68668 0.77153,1.86718 -0.0645,0.15548 -0.4022,0.0378 -0.46679,0.19289 -0.0645,0.15546 0.12858,0.31118 0.19287,0.46678 l 0.19288,0.46681 c 0.19426,0.47009 1.13668,2.50706 1.15731,2.80077 0.0166,0.2375 -0.30875,0.42415 -0.27392,0.65967 0.074,0.49964 0.38578,0.93359 0.57865,1.4004 l 1.92883,4.66794 c 0.11113,0.26898 0.97915,2.12873 0.96442,2.33398 -0.0171,0.23749 -0.25682,0.4222 -0.27391,0.65968 -0.0121,0.16793 0.12859,0.3112 0.19289,0.4668 l 0.19289,0.46679 0.96441,2.33398 0.57865,1.40039 0.19288,0.46679 -0.38577,-0.93358 c 0.19289,0.46679 0.27831,0.9943 0.57865,1.40038 0.14154,0.19143 0.47994,0.11776 0.65968,0.27391 0.16902,0.14684 0.4438,1.3444 0.57865,1.40039 0.15548,0.0645 0.31131,-0.25744 0.4668,-0.19289 0.15548,0.0645 0.12859,0.31121 0.19288,0.46681 0.0643,0.1556 0.34848,0.40249 0.19289,0.46679 -0.15562,0.0643 -0.25718,-0.62239 -0.19289,-0.46679 l 1.1573,2.80077 0.38577,0.93358 c 0.0643,0.15562 0.34848,0.40251 0.19287,0.4668 -0.15558,0.0643 -0.25717,-0.62239 -0.19287,-0.4668 l 0.38577,0.9336 c 0.0643,0.15559 0.34848,0.4025 0.19288,0.4668 -0.1556,0.0643 -0.1286,-0.31121 -0.19288,-0.4668"
       id="path4164-6-1"
       inkscape:connector-curvature="0"
       sodipodi:nodetypes="cccsscccsccsccsccccccccssssccccccccccsscccccssccssccssccscccccccscssscsssssc" />
    <path
       style="fill:none;fill-rule:evenodd;stroke:#000000;stroke-width:1px;stroke-linecap:butt;stroke-linejoin:miter;stroke-opacity:1"
       d="M 319.54344,315.10133 362.8013,283.56445 321.81667,242.57099"
       id="path4166-7-8"
       inkscape:connector-curvature="0" />
    <path
       style="fill:none;fill-rule:evenodd;stroke:#000000;stroke-width:1px;stroke-linecap:butt;stroke-linejoin:miter;stroke-opacity:1"
       d="m 318.88374,314.82741 -14.05405,9.63272"
       id="path4168-5-7"
       inkscape:connector-curvature="0" />
    <path
       style="fill:none;fill-rule:evenodd;stroke:#000000;stroke-width:1px;stroke-linecap:butt;stroke-linejoin:miter;stroke-opacity:1"
       d="M 320.6902,242.48996 308.25671,229.59319"
       id="path4170-3-9"
       inkscape:connector-curvature="0" />
    <path
       style="fill:none;fill-rule:evenodd;stroke:#000000;stroke-width:1px;stroke-linecap:butt;stroke-linejoin:miter;stroke-opacity:1"
       d="m 332.62607,252.85988 c 0.0196,-1.50573 0.30446,-3.00019 0.3241,-4.5059 0.008,-0.53235 -0.15,-1.06225 -0.11174,-1.59327 0.0436,-0.60547 0.39744,-1.18063 0.35495,-1.78615 -0.0353,-0.50386 -0.50475,-0.90075 -0.57865,-1.40041 -0.0348,-0.23551 0.25682,-0.42218 0.2739,-0.65967 0.0221,-0.30803 -0.52677,-1.04992 -0.57865,-1.4004 -0.0779,-0.52665 -0.10579,-1.06091 -0.11175,-1.59327 -0.004,-0.37643 0.15377,-0.75711 0.081,-1.12647 -0.0975,-0.49558 -0.481,-0.90486 -0.57865,-1.40039 -0.0728,-0.36934 0.13612,-0.75406 0.081,-1.12646 -0.0491,-0.33312 -0.25718,-0.6224 -0.38578,-0.9336 -0.25717,-0.6224 -0.51434,-1.24479 -0.77153,-1.86719 -0.10769,-0.26054 -0.80486,-2.14973 -0.96442,-2.33397 -0.20327,-0.23483 -2.18416,-0.79068 -2.63871,-1.09564 -0.31261,-0.20976 -0.52879,-0.54864 -0.85257,-0.74073 -0.40952,-0.24296 -0.87957,-0.3652 -1.31935,-0.54782 -0.21989,-0.0913 -0.42614,-0.2275 -0.65967,-0.27391 -0.36924,-0.0735 -0.75724,-0.007 -1.12649,-0.081 -0.23351,-0.0464 -0.42614,-0.2275 -0.65966,-0.27391 -0.36925,-0.0734 -0.75724,-0.007 -1.12649,-0.081 -0.23352,-0.0464 -0.43978,-0.18261 -0.65967,-0.27392 -0.46179,-0.19173 -1.51726,-0.62998 -1.97904,-0.82172 -0.4398,-0.18261 -0.8523,-0.45503 -1.31936,-0.54783 -0.36923,-0.0733 -0.75093,-0.1074 -1.12648,-0.081 -0.33586,0.0238 -0.6226,0.51489 -0.93359,0.38576 -0.15548,-0.0645 -0.0378,-0.4022 -0.19288,-0.46678 -0.15548,-0.0646 -0.31131,0.25744 -0.4668,0.19287 -0.15547,-0.0645 -0.0377,-0.4022 -0.19288,-0.46679 -0.15548,-0.0645 -0.29886,0.20497 -0.46679,0.19287 -0.23748,-0.0171 -0.42221,-0.25682 -0.65968,-0.27389 -0.16792,-0.0121 -0.40251,0.34848 -0.46679,0.19287 -0.0643,-0.1556 0.6224,-0.25718 0.46679,-0.19287 -1.08919,0.45005 -2.17838,0.90011 -3.26756,1.35017 -0.21023,0.0868 -1.28771,0.44887 -1.4004,0.57865 -0.31231,0.35947 -0.23551,0.95989 -0.54782,1.31936 -0.22084,0.25418 -0.80447,0.0748 -0.93359,0.38577 -0.0645,0.15547 0.12858,0.3112 0.19288,0.46679 0.25718,0.62241 0.51435,1.24478 0.77153,1.86719 0.45235,1.09471 0.0191,-0.26552 -0.081,1.12647 -0.0121,0.16793 0.12858,0.3112 0.19289,0.4668 0.0643,0.1556 0.12859,0.31119 0.19288,0.46678 0.22783,0.55139 1.13511,2.48496 1.1573,2.80078 0.0166,0.23753 -0.2906,0.42218 -0.27392,0.65969 0.0352,0.50383 0.38576,0.93359 0.57865,1.40038 0.32146,0.77799 0.64293,1.55599 0.96441,2.33397 0.64295,1.55599 1.28589,3.11198 1.92884,4.66796 0.19289,0.4668 0.38575,0.93359 0.57864,1.40039 0.1286,0.3112 0.20773,0.64778 0.38576,0.93358 0.36697,0.58925 0.85257,1.09722 1.23835,1.67431 0.11584,0.17325 0.32215,0.90716 0.38576,0.9336 0.15549,0.0645 0.31131,-0.25746 0.46678,-0.19289 0.1555,0.0645 0.0659,0.35638 0.1929,0.46681 1.95092,1.69494 -1.01195,-1.90087 1.51225,1.0146 0.11015,0.1273 0.0659,0.35638 0.19288,0.4668 0.0815,0.0708 2.53089,1.08788 2.63871,1.09565 0.16794,0.0121 0.29886,-0.20496 0.4668,-0.19289 0.86264,0.0621 0.70877,0.681 1.51223,1.01463 0.15549,0.0645 0.29886,-0.20499 0.4668,-0.19289 2.57772,0.18542 -2.06075,0.62501 1.78616,0.35494 0.33331,-0.0236 1.49139,-0.61626 1.86718,-0.77153 0.11321,-0.0468 1.37919,-0.58742 1.40038,-0.57865 0.15549,0.0645 0.0378,0.40221 0.19288,0.46679 0.0266,0.011 1.69576,-0.70069 1.86718,-0.77153 0.1556,-0.0642 0.6224,-0.25718 0.46681,-0.19287 -0.3112,0.12858 -1.26944,0.36159 -0.9336,0.38575 1.06205,0.0763 2.12437,-0.149 3.18654,-0.2237 z"
       id="path4172-5-2"
       inkscape:connector-curvature="0" />
    <path
       style="fill:none;fill-rule:evenodd;stroke:#000000;stroke-width:1px;stroke-linecap:butt;stroke-linejoin:miter;stroke-opacity:1"
       d="m 333.04969,306.78797 c -2.04304,-1.1487 -3.95545,-1.64329 -6.21104,-1.80553 -0.37548,-0.027 -0.75093,-0.1074 -1.12646,-0.081 -0.69249,0.0482 -1.36762,0.25613 -2.06006,0.30473 -0.37552,0.0267 -0.75004,-0.0853 -1.12648,-0.081 -1.06473,0.0121 -2.12181,0.21168 -3.18655,0.22369 -0.75287,0.009 -1.50186,-0.2148 -2.25295,-0.16207 -0.16793,0.0118 -0.29886,0.18106 -0.4668,0.19289 -0.3755,0.0267 -0.75094,-0.10741 -1.12646,-0.081 -0.33588,0.0238 -0.6224,0.25718 -0.9336,0.38576 -0.77798,0.32148 -1.55599,0.64295 -2.33397,0.96442 -0.19636,0.0812 -2.69059,1.03052 -2.80078,1.1573 -0.15615,0.17973 -0.0938,0.50383 -0.27392,0.65967 -0.25456,0.2204 -0.67903,0.16537 -0.93358,0.38578 -0.18,0.15585 -0.11776,0.47994 -0.27392,0.65967 -0.91215,1.04991 -0.13849,-1.5291 -1.20749,1.04546 -0.14438,0.34767 0.0636,0.77876 -0.081,1.12646 -0.14435,0.34769 -0.53096,0.53994 -0.7407,0.85256 -0.26532,0.39543 -0.23551,0.95989 -0.54784,1.31937 -0.1104,0.1271 -0.4022,0.0378 -0.46678,0.19288 -0.0645,0.15549 0.20496,0.29886 0.19289,0.46679 -0.0171,0.23748 -0.25684,0.4222 -0.27392,0.65968 -0.0221,0.30556 0.84647,1.68668 0.77153,1.86718 -0.0645,0.15549 -0.40221,0.0378 -0.46679,0.19287 -0.0645,0.15549 0.25744,0.31131 0.19288,0.46681 -0.0645,0.15548 -0.40251,0.34848 -0.46679,0.19289 -0.0643,-0.1556 0.62238,-0.25719 0.46679,-0.19289 -0.3112,0.12859 -0.71276,0.1316 -0.9336,0.38577 -0.11041,0.1271 0.20498,0.29886 0.19289,0.4668 -0.0171,0.23748 -0.2275,0.42615 -0.27391,0.65967 -0.0735,0.36925 -0.007,0.75723 -0.081,1.12648 -0.0464,0.23352 -0.2275,0.42614 -0.27391,0.65968 -0.20392,1.0262 -0.17524,0.89848 0.11174,1.59328 0.0643,0.15559 0.25718,0.62239 0.19288,0.4668 -0.12859,-0.31121 -0.51435,-1.2448 -0.38577,-0.93361 0.19289,0.46681 0.38577,0.93361 0.57865,1.40038 0.10087,0.24411 0.65945,1.76981 0.77154,1.86719 0.17974,0.15617 0.47993,0.11777 0.65967,0.27391 0.38127,0.33126 0.19738,1.06914 0.57865,1.40039 0.12709,0.11042 0.31131,-0.25743 0.4668,-0.19289 0.15549,0.0645 0.0659,0.35639 0.19289,0.46681 0.17972,0.15615 0.43978,0.18261 0.65967,0.27392 0.2199,0.0913 0.4222,0.25682 0.65967,0.27391 0.16794,0.0121 0.29888,-0.20498 0.46681,-0.19289 0.86263,0.0621 0.70876,0.681 1.51223,1.01462 0.34769,0.14436 0.77879,-0.0636 1.12648,0.081 0.56062,0.23279 0.95161,0.78184 1.51225,1.01463 0.15546,0.0645 0.29885,-0.18105 0.46677,-0.19289 0.75111,-0.0525 1.50816,0.27223 2.25297,0.16205 0.33309,-0.0491 0.60048,-0.33653 0.93359,-0.38576 0.74481,-0.1102 1.50811,0.27224 2.25295,0.16204 0.3331,-0.0491 0.60048,-0.3365 0.93358,-0.38575 0.37241,-0.0551 0.75565,0.1459 1.12647,0.081 2.31771,-0.40542 4.16311,-1.17373 6.26123,-2.04068 0.2441,-0.10088 1.76979,-0.65947 1.86719,-0.77154 0.15615,-0.17974 0.11775,-0.47993 0.27391,-0.65968 0.34917,-0.40191 0.93585,-0.58756 1.2075,-1.04545 0.38416,-0.64752 -0.12666,-1.55759 0.16206,-2.25295 0.14437,-0.34767 0.59634,-0.50487 0.74071,-0.85256 0.0645,-0.15549 -0.25746,-0.31131 -0.19288,-0.46679 0.0645,-0.1555 0.4022,-0.0377 0.46678,-0.19288 0.12913,-0.31098 -0.51489,-0.62261 -0.38577,-0.93359 0.0645,-0.15549 0.40221,-0.0378 0.46682,-0.1929 0.0645,-0.15548 -0.20499,-0.29885 -0.1929,-0.46679 0.10291,-1.43091 0.75545,0.24752 0.35494,-1.78615 -0.0976,-0.49557 -0.48101,-0.90484 -0.57865,-1.40039 -0.14544,-0.73874 0.2148,-1.50187 0.16207,-2.25295 -0.0118,-0.16792 -0.25745,-0.31131 -0.19287,-0.46678 0.0645,-0.15549 0.4022,-0.0377 0.46678,-0.19289 0.12912,-0.31098 -0.51489,-0.62263 -0.38578,-0.9336 0.0645,-0.15547 0.4022,-0.0377 0.46681,-0.19288 0.0645,-0.15548 -0.18106,-0.29886 -0.19288,-0.46679 -0.0267,-0.37552 0.1074,-0.75093 0.081,-1.12649 -0.0238,-0.33587 -0.51488,-0.62261 -0.38576,-0.93358 0.047,-0.11311 1.37818,-0.49233 1.40037,-0.57865 0.18751,-0.7292 0.10806,-1.50197 0.16208,-2.25295 z"
       id="path4174-6-0"
       inkscape:connector-curvature="0" />
    <path
       style="fill:none;stroke:#000000;stroke-width:0.57200003;stroke-miterlimit:4;stroke-dasharray:none;stroke-opacity:1"
       id="path4258-8"
       sodipodi:type="arc"
       sodipodi:cx="-291.92285"
       sodipodi:cy="-270.51239"
       sodipodi:rx="16.920055"
       sodipodi:ry="17.425131"
       sodipodi:start="2.3862951"
       sodipodi:end="4.1782194"
       d="m -304.2418,-258.56737 a 16.920055,17.425131 0 0 1 -4.43399,-14.38804 16.920055,17.425131 0 0 1 8.13849,-12.55465 l 8.61445,14.99767 z"
       transform="matrix(-0.99998834,0.00482953,-0.00482953,-0.99998834,0,0)" />
    <path
       style="fill:none;fill-rule:evenodd;stroke:#000000;stroke-width:1;stroke-linecap:butt;stroke-linejoin:miter;stroke-miterlimit:4;stroke-dasharray:1, 1;stroke-dashoffset:0;stroke-opacity:1"
       d="M 362.26661,282.83427 294.01382,269.02162"
       id="path4268-3"
       inkscape:connector-curvature="0" />
    <text
       xml:space="preserve"
       style="font-style:normal;font-weight:normal;font-size:12.5px;line-height:125%;font-family:sans-serif;letter-spacing:0px;word-spacing:0px;fill:#000000;fill-opacity:1;stroke:none;stroke-width:1px;stroke-linecap:butt;stroke-linejoin:miter;stroke-opacity:1"
       x="296.77588"
       y="256.47635"
       id="text4270-6-9"
       sodipodi:linespacing="125%"><tspan
         sodipodi:role="line"
         x="296.77588"
         y="256.47635"
         id="tspan4274-2-4">d</tspan></text>
    <text
       xml:space="preserve"
       style="font-style:normal;font-weight:normal;font-size:12.5px;line-height:125%;font-family:sans-serif;letter-spacing:0px;word-spacing:0px;fill:#000000;fill-opacity:1;stroke:none;stroke-width:1px;stroke-linecap:butt;stroke-linejoin:miter;stroke-opacity:1"
       x="296.27081"
       y="300.92303"
       id="text4270-6-7"
       sodipodi:linespacing="125%"><tspan
         sodipodi:role="line"
         x="296.27081"
         y="300.92303"
         id="tspan4274-2-8">d</tspan></text>
    <text
       xml:space="preserve"
       style="font-style:normal;font-weight:normal;font-size:12.5px;line-height:125%;font-family:sans-serif;letter-spacing:0px;word-spacing:0px;fill:#000000;fill-opacity:1;stroke:none;stroke-width:1px;stroke-linecap:butt;stroke-linejoin:miter;stroke-opacity:1"
       x="343.34512"
       y="262.89282"
       id="text4209-4"
       sodipodi:linespacing="125%"><tspan
         sodipodi:role="line"
         id="tspan4211-5"
         x="343.34512"
         y="262.89282">r</tspan><tspan
         sodipodi:role="line"
         x="343.34512"
         y="278.51782"
         id="tspan4213-0" /></text>
    <text
       xml:space="preserve"
       style="font-style:normal;font-weight:normal;font-size:12.5px;line-height:125%;font-family:sans-serif;letter-spacing:0px;word-spacing:0px;fill:#000000;fill-opacity:1;stroke:none;stroke-width:1px;stroke-linecap:butt;stroke-linejoin:miter;stroke-opacity:1"
       x="345.36542"
       y="305.82431"
       id="text4209-3"
       sodipodi:linespacing="125%"><tspan
         sodipodi:role="line"
         id="tspan4211-6"
         x="345.36542"
         y="305.82431">r</tspan><tspan
         sodipodi:role="line"
         x="345.36542"
         y="321.44931"
         id="tspan4213-10" /></text>
    <text
       xml:space="preserve"
       style="font-style:normal;font-weight:normal;font-size:12.5px;line-height:125%;font-family:sans-serif;letter-spacing:0px;word-spacing:0px;fill:#000000;fill-opacity:1;stroke:none;stroke-width:1px;stroke-linecap:butt;stroke-linejoin:miter;stroke-opacity:1"
       x="311.50702"
       y="267.86118"
       id="text4260-6"
       sodipodi:linespacing="125%"><tspan
         sodipodi:role="line"
         x="311.50702"
         y="267.86118"
         id="tspan4264-3">α</tspan></text>
    <text
       xml:space="preserve"
       style="font-style:normal;font-weight:normal;font-size:12.5px;line-height:125%;font-family:sans-serif;letter-spacing:0px;word-spacing:0px;fill:#000000;fill-opacity:1;stroke:none;stroke-width:1px;stroke-linecap:butt;stroke-linejoin:miter;stroke-opacity:1"
       x="397.49503"
       y="231.61327"
       id="text4446"
       sodipodi:linespacing="125%"><tspan
         sodipodi:role="line"
         id="tspan4448"
         x="397.49503"
         y="231.61327">tan(α/2) = r/d</tspan><tspan
         sodipodi:role="line"
         x="397.49503"
         y="247.23827"
         id="tspan4466">d = r/tan(α/2)</tspan><tspan
         sodipodi:role="line"
         x="397.49503"
         y="262.86328"
         id="tspan4476">sin(α/2) = r/l</tspan><tspan
         sodipodi:role="line"
         x="397.49503"
         y="278.48828"
         id="tspan4478">l = r / sin(α/2)</tspan><tspan
         sodipodi:role="line"
         x="397.49503"
         y="294.11328"
         id="tspan4525">γ = 90 - β</tspan><tspan
         sodipodi:role="line"
         x="397.49503"
         y="309.73828"
         id="tspan4527">δ = 90 - α + β</tspan></text>
    <text
       xml:space="preserve"
       style="font-style:normal;font-weight:normal;font-size:12.5px;line-height:125%;font-family:sans-serif;letter-spacing:0px;word-spacing:0px;fill:#000000;fill-opacity:1;stroke:none;stroke-width:1px;stroke-linecap:butt;stroke-linejoin:miter;stroke-opacity:1"
       x="362.13959"
       y="162.96172"
       id="text4468"
       sodipodi:linespacing="125%"><tspan
         sodipodi:role="line"
         id="tspan4470"
         x="362.13959"
         y="162.96172">l</tspan></text>
    <text
       xml:space="preserve"
       style="font-style:normal;font-weight:normal;font-size:12.5px;line-height:125%;font-family:sans-serif;letter-spacing:0px;word-spacing:0px;fill:#000000;fill-opacity:1;stroke:none;stroke-width:1px;stroke-linecap:butt;stroke-linejoin:miter;stroke-opacity:1"
       x="317.1879"
       y="153.8315"
       id="text4472"
       sodipodi:linespacing="125%"><tspan
         sodipodi:role="line"
         id="tspan4474"
         x="317.1879"
         y="153.8315">O</tspan></text>
    <path
       style="fill:none;fill-rule:evenodd;stroke:#000000;stroke-width:1;stroke-linecap:butt;stroke-linejoin:miter;stroke-miterlimit:4;stroke-dasharray:1, 1;stroke-dashoffset:0;stroke-opacity:1"
       d="m 311.63206,191.71224 120.20816,0.50508"
       id="path4480"
       inkscape:connector-curvature="0" />
    <path
       style="fill:none;fill-rule:evenodd;stroke:#000000;stroke-width:1;stroke-linecap:butt;stroke-linejoin:miter;stroke-miterlimit:4;stroke-dasharray:1, 1;stroke-dashoffset:0;stroke-opacity:1"
       d="m 328.80465,150.04344 120.20816,0.50508"
       id="path4480-5"
       inkscape:connector-curvature="0" />
    <path
       style="fill:none;stroke:#000000;stroke-width:1;stroke-miterlimit:4;stroke-dasharray:1, 1;stroke-dashoffset:0;stroke-opacity:1"
       id="path4500"
       sodipodi:type="arc"
       sodipodi:cx="371.34802"
       sodipodi:cy="192.17772"
       sodipodi:rx="17.716536"
       sodipodi:ry="17.716536"
       sodipodi:start="5.4689402"
       sodipodi:end="6.2583995"
       d="m 383.50896,179.29412 a 17.716536,17.716536 0 0 1 5.55016,12.44453"
       sodipodi:open="true" />
    <text
       xml:space="preserve"
       style="font-style:normal;font-weight:normal;font-size:12.5px;line-height:125%;font-family:sans-serif;letter-spacing:0px;word-spacing:0px;fill:#000000;fill-opacity:1;stroke:none;stroke-width:1px;stroke-linecap:butt;stroke-linejoin:miter;stroke-opacity:1"
       x="388.75363"
       y="191.86697"
       id="text4502"
       sodipodi:linespacing="125%"><tspan
         sodipodi:role="line"
         id="tspan4504"
         x="388.75363"
         y="191.86697">β</tspan></text>
    <path
       style="fill:none;stroke:#000000;stroke-width:1;stroke-miterlimit:4;stroke-dasharray:1, 1;stroke-dashoffset:0;stroke-opacity:1"
       id="path4500-4"
       sodipodi:type="arc"
       sodipodi:cx="329.85403"
       sodipodi:cy="150.21751"
       sodipodi:rx="17.716536"
       sodipodi:ry="17.716536"
       sodipodi:start="0.018192405"
       sodipodi:end="0.79571538"
       d="m 347.56764,150.5398 a 17.716536,17.716536 0 0 1 -5.31604,12.33378"
       sodipodi:open="true" />
    <text
       xml:space="preserve"
       style="font-style:normal;font-weight:normal;font-size:12.5px;line-height:125%;font-family:sans-serif;letter-spacing:0px;word-spacing:0px;fill:#000000;fill-opacity:1;stroke:none;stroke-width:1px;stroke-linecap:butt;stroke-linejoin:miter;stroke-opacity:1"
       x="346.28082"
       y="163.76793"
       id="text4521"
       sodipodi:linespacing="125%"><tspan
         sodipodi:role="line"
         id="tspan4523"
         x="346.28082"
         y="163.76793">γ</tspan></text>
    <text
       xml:space="preserve"
       style="font-style:normal;font-weight:normal;font-size:12.5px;line-height:125%;font-family:sans-serif;letter-spacing:0px;word-spacing:0px;fill:#000000;fill-opacity:1;stroke:none;stroke-width:1px;stroke-linecap:butt;stroke-linejoin:miter;stroke-opacity:1"
       x="351.47357"
       y="145.6405"
       id="text4529"
       sodipodi:linespacing="125%"><tspan
         sodipodi:role="line"
         id="tspan4531"
         x="351.47357"
         y="145.6405">δ </tspan></text>
    <path
       style="fill:none;stroke:#000000;stroke-width:1.0979166;stroke-miterlimit:4;stroke-dasharray:1.0979166, 1.0979166;stroke-dashoffset:0;stroke-opacity:1"
       id="path4500-4-7"
       sodipodi:type="arc"
       sodipodi:cx="329.84988"
       sodipodi:cy="149.97699"
       sodipodi:rx="21.862156"
       sodipodi:ry="17.306265"
       sodipodi:start="5.5077057"
       sodipodi:end="6.2629026"
       d="m 345.46133,137.86159 a 21.862156,17.306265 0 0 1 6.24621,11.76441"
       sodipodi:open="true" />
  </g>
</svg>
